{
    "page": 1,
    "total_results": 45,
    "total_pages": 3,
    "results": [
    {
    "vote_average": 5.1,
    "vote_count": 2926,
    "id": 9480,
    "video": false,
    "media_type": "movie",
    "title": "Daredevil",
    "popularity": 12.201,
    "poster_path": "/dNVEqwgIdrwWQL3zXI5mQG60oM5.jpg",
    "original_language": "en",
    "original_title": "Daredevil",
    "genre_ids": [
    14,
    28,
    80,
    878,
    53
    ],
    "backdrop_path": "/nQCdIwZEBakwbP2e5fQhfYKHQza.jpg",
    "adult": false,
    "overview": "He dwells in a world of eternal night, but the blackness is filled with sounds and scents, tastes and textures that most cannot perceive. Although attorney Matt Murdock is blind, his other four senses function with superhuman sharpness. By day, Murdock represents the downtrodden. At night he is Daredevil, a masked vigilante stalking the dark streets of the city, a relentless avenger of justice.",
    "release_date": "2003-02-14"
    },
    {
    "original_name": "Marvel's Daredevil",
    "id": 61889,
    "media_type": "tv",
    "name": "Marvel's Daredevil",
    "vote_count": 1399,
    "vote_average": 7.8,
    "poster_path": "/wVadC1BT2w3hDh5Vq0J0LFFTrLP.jpg",
    "first_air_date": "2015-04-10",
    "popularity": 28.196,
    "genre_ids": [
    28,
    80
    ],
    "original_language": "en",
    "backdrop_path": "/dpNeXLEnuKzAvbNwveJhNEiQvXZ.jpg",
    "overview": "Lawyer-by-day Matt Murdock uses his heightened senses from being blinded as a young boy to fight crime at night on the streets of Hell’s Kitchen as Daredevil.",
    "origin_country": [
    "US"
    ]
    },
    {
    "original_name": "Kick Buttowski: Suburban Daredevil",
    "id": 17572,
    "media_type": "tv",
    "name": "Kick Buttowski: Suburban Daredevil",
    "vote_count": 9,
    "vote_average": 5.78,
    "poster_path": "/29nNP9wNeiD0q6a90XH78zniokc.jpg",
    "first_air_date": "2010-02-13",
    "popularity": 7.405,
    "genre_ids": [
    10759,
    16,
    35,
    10762
    ],
    "original_language": "en",
    "backdrop_path": "/rohZmzCy7oQJ5U4TRSxHegVKw30.jpg",
    "overview": "Kick Buttowski: Suburban Daredevil is an Emmy Nominated animated television series created by animator Sandro Corsaro, about a young boy named Clarence \"Kick\" Buttowski, who aspires to become the world's greatest daredevil. It became the fourth Disney XD original series and the first animated series. The show premiered on February 13, 2010, with two episodes airing the first day. Also the series premiered on Disney Channel Asia on May 28, 2010 There are two 11-minute segments per show. The show uses Toon Boom Animation software. There are also some 3D-animated elements. The series is executive-produced and directed by Chris Savino. and Sandro Corsaro. Many of the characters and situations were based on the Corsaro's childhood growing up in Stoneham, Massachusetts.",
    "origin_country": []
    },
    {
    "vote_average": 7.3,
    "vote_count": 7,
    "id": 84747,
    "video": false,
    "media_type": "movie",
    "title": "Daredevil Droopy",
    "popularity": 1.645,
    "poster_path": "/A1b2RBL461DgiIVnkFxXwkIaHPp.jpg",
    "original_language": "en",
    "original_title": "Daredevil Droopy",
    "genre_ids": [
    16
    ],
    "backdrop_path": "/mHyMfyqXVPw4MotBZecp8erPmy1.jpg",
    "adult": false,
    "overview": "Droopy and Spike are applying for the job of Dare Devil Dog at the Circus, and the one who give the best performance in a variety of \"feats of strength and daring\" will get it.",
    "release_date": "1951-03-31"
    },
    {
    "vote_average": 0,
    "vote_count": 0,
    "id": 282882,
    "video": false,
    "media_type": "movie",
    "title": "Daredevil",
    "popularity": 0.6,
    "poster_path": null,
    "original_language": "en",
    "original_title": "Smelchak",
    "genre_ids": [],
    "backdrop_path": null,
    "adult": false,
    "overview": "Propaganda film directed by Mikhail Narokov and Nikandr Turkin.",
    "release_date": "1919-01-02"
    },
    {
    "vote_average": 6,
    "vote_count": 2,
    "id": 270768,
    "video": true,
    "media_type": "movie",
    "title": "Daredevil vs. Spider-Man",
    "popularity": 1.59,
    "poster_path": "/pVKWmbGyjO5BpimC1De4KPwVct3.jpg",
    "original_language": "en",
    "original_title": "Daredevil vs. Spider-Man",
    "genre_ids": [
    16,
    12,
    28
    ],
    "backdrop_path": "/iEBuLnJTP7ATQS0nR5rqurpyFTH.jpg",
    "adult": false,
    "overview": "Spider-Man and Daredevil team up to fight Kingpin.",
    "release_date": "1994-11-19"
    },
    {
    "vote_average": 5,
    "vote_count": 1,
    "id": 295137,
    "video": false,
    "media_type": "movie",
    "title": "Daredevil Drivers",
    "popularity": 0.84,
    "poster_path": "/6GisIBauwK7YEYKYydkV4byrkbI.jpg",
    "original_language": "en",
    "original_title": "Daredevil Drivers",
    "genre_ids": [
    18,
    28,
    80
    ],
    "backdrop_path": "/enIcKUscH1jS9MsCHChXeh20PQG.jpg",
    "adult": false,
    "overview": "To spite his girlfriend (Beverly Roberts), the owner of a successful bus company, an auto racer (Dick Purcell) goes to work for her rival.",
    "release_date": "1938-02-12"
    },
    {
    "vote_average": 5,
    "vote_count": 1,
    "id": 175859,
    "video": false,
    "media_type": "movie",
    "title": "Daredevil of the Movies",
    "popularity": 0.871,
    "poster_path": "/pRVcneYCG1xUodIBKGpuAxLX0Gg.jpg",
    "original_language": "en",
    "original_title": "Filmens Vovehals",
    "genre_ids": [],
    "backdrop_path": null,
    "adult": false,
    "overview": "A fun Danish comedy short silent about a \"Daredevil of the Movies\".",
    "release_date": "1923-03-09"
    },
    {
    "vote_average": 0,
    "vote_count": 0,
    "id": 503898,
    "video": false,
    "media_type": "movie",
    "title": "Daredevil Times",
    "popularity": 0.6,
    "poster_path": "/cCirlduIsqlPZQtGK5tXnR2ZL9c.jpg",
    "original_language": "hr",
    "original_title": "Hajdučka vremena",
    "genre_ids": [
    10751,
    18
    ],
    "backdrop_path": null,
    "adult": false,
    "overview": "Sfaira (1971-1984) dedicated to Pythagoras and Plato is a homage to two of his favourite spheroids: the Earth and the Sun.",
    "release_date": "1977-01-12"
    },
    {
    "vote_average": 0,
    "vote_count": 0,
    "id": 104389,
    "video": false,
    "media_type": "movie",
    "title": "Daredevil Commandos",
    "popularity": 0.6,
    "poster_path": "/oOtJ9ExXjedchraQ6xlWGPXpvzE.jpg",
    "original_language": "en",
    "original_title": "Komando samber nyawa",
    "genre_ids": [
    28
    ],
    "backdrop_path": null,
    "adult": false,
    "overview": "The Indonesian rebels want to get rid of the evil Dutch occupiers, but they are too strong so they have to create a super commando unit with their best soldiers.",
    "release_date": "1985-01-01"
    },
    {
    "vote_average": 0,
    "vote_count": 0,
    "id": 287742,
    "video": false,
    "media_type": "movie",
    "title": "Daredevil O'Dare",
    "popularity": 0.6,
    "poster_path": null,
    "original_language": "en",
    "original_title": "Daredevil O'Dare",
    "genre_ids": [
    35
    ],
    "backdrop_path": null,
    "adult": false,
    "overview": "Elmer O'Dare fancies himself an expert circus performer.",
    "release_date": "1934-08-11"
    },
    {
    "vote_average": 6,
    "vote_count": 1,
    "id": 80654,
    "video": false,
    "media_type": "movie",
    "title": "The Daredevil",
    "popularity": 0.6,
    "poster_path": "/jpoYNAMnmzsBepn8QMPBQCM5JhX.jpg",
    "original_language": "en",
    "original_title": "The Daredevil",
    "genre_ids": [
    28,
    80
    ],
    "backdrop_path": null,
    "adult": false,
    "overview": "In this action movie, a top stock-car driver causes a death on the race track and finds his career in shambles. Desperate for money, he gets a job as a driver for a drug ring.",
    "release_date": "1972-01-01"
    },
    {
    "vote_average": 0,
    "vote_count": 0,
    "id": 284863,
    "video": false,
    "media_type": "movie",
    "title": "Senor Daredevil",
    "popularity": 0.6,
    "poster_path": "/uWnL9vziRmmbC3TqbXBD98P8nBr.jpg",
    "original_language": "en",
    "original_title": "Senor Daredevil",
    "genre_ids": [
    28,
    37,
    10749,
    12
    ],
    "backdrop_path": null,
    "adult": false,
    "overview": "Don Luis O'Flagherty (Ken Maynard), a daredevil comes to the rescue of his long-lost father, \"Tiger\" O'Flagherty (George Nichols), the supervisor of a supply-wagon train destined for the miners in Sonora. Tiger is being terrorized by Jesse Wilks (J.P. McGowan), who hopes to starve the miners out of their claims. Falling in love with Tiger's ward, Sally (Dorothy Devore), Don Luis manages to turn the tables on Wilks, who is killed attempting to rob the supply train.",
    "release_date": "1926-08-01"
    },
    {
    "original_name": "Daredevil Guardian Devil",
    "id": 45370,
    "media_type": "tv",
    "name": "Daredevil Guardian Devil",
    "vote_count": 0,
    "vote_average": 0,
    "poster_path": null,
    "first_air_date": "2003-11-07",
    "popularity": 0.6,
    "genre_ids": [
    16
    ],
    "original_language": "en",
    "backdrop_path": null,
    "overview": "",
    "origin_country": []
    },
    {
    "vote_average": 0,
    "vote_count": 0,
    "id": 455400,
    "video": false,
    "media_type": "movie",
    "title": "Five Kung Fu Daredevil Heroes",
    "popularity": 0.853,
    "poster_path": "/8bqntB59rbY2W5xR1qWA34GbbTJ.jpg",
    "original_language": "zh",
    "original_title": "Five Kung Fu Daredevil Heroes",
    "genre_ids": [],
    "backdrop_path": null,
    "adult": false,
    "overview": "The heroes pose as gun dealers and acrobats in order to get close to the bad guys so they can avenge the death of one of their brothers.",
    "release_date": "1977-01-01"
    },
    {
    "vote_average": 6.5,
    "vote_count": 2,
    "id": 229339,
    "video": false,
    "media_type": "movie",
    "title": "Daredevil in the Castle",
    "popularity": 0.66,
    "poster_path": "/AwDXMfNfLV0W4optWBBLOx99iBS.jpg",
    "original_language": "ja",
    "original_title": "大阪城物語",
    "genre_ids": [
    36,
    10752,
    28
    ],
    "backdrop_path": null,
    "adult": false,
    "overview": "During the raging war between the Toyotomi and Tokugawa clans, the swordsman Mohei (whose family has been completely decimated) is recruited by Toyotomi to overcome the seat of power, Osaka Castle. Mohei's daredevil skills will be put to severe tests.",
    "release_date": "1961-01-03"
    },
    {
    "vote_average": 10,
    "vote_count": 2,
    "id": 425907,
    "video": false,
    "media_type": "movie",
    "title": "Untitled Daredevil Reboot",
    "popularity": 0.6,
    "poster_path": null,
    "original_language": "en",
    "original_title": "Untitled Daredevil Reboot",
    "genre_ids": [],
    "backdrop_path": null,
    "adult": false,
    "overview": "Plot is unknown.",
    "release_date": ""
    },
    {
    "vote_average": 0,
    "vote_count": 0,
    "id": 434709,
    "video": false,
    "media_type": "movie",
    "title": "Don Daredevil Rides Again",
    "popularity": 0.6,
    "poster_path": "/lnPcVB7ZkYNQSo2u83nGGFJngvw.jpg",
    "original_language": "en",
    "original_title": "Don Daredevil Rides Again",
    "genre_ids": [
    37
    ],
    "backdrop_path": "/2JSuleBSTqkB7Mcq5Ww3ked5Mss.jpg",
    "adult": false,
    "overview": "Stock-footage from Republic Pictures' earlier Zorro serials was served up once again in this 12 chapter cliffhanger, this time without the financially strapped studio having to credit Zorro creator Johnston McCulley or pay any royalties. Zorro simply became \"Don Daredevil\" (Ken Curtis), a foppish Easterner by day turned masked avenger by night. Like his not too distant relative, Don wore his disguise in order to battle nasty Roy Barcroft who, under a forged Spanish land grant, attempts to take over the surrounding ranch land.",
    "release_date": "1951-04-10"
    },
    {
    "vote_average": 5,
    "vote_count": 1,
    "id": 264121,
    "video": false,
    "media_type": "movie",
    "title": "Daredevil: The Teaser",
    "popularity": 0.6,
    "poster_path": null,
    "original_language": "en",
    "original_title": "Daredevil: The Teaser",
    "genre_ids": [
    28,
    80,
    9648
    ],
    "backdrop_path": null,
    "adult": false,
    "overview": "Daredevil is looking for King Pin and gets unexpected help in his search.",
    "release_date": "2001-01-01"
    },
    {
    "vote_average": 0,
    "vote_count": 0,
    "id": 600174,
    "video": false,
    "media_type": "movie",
    "title": "Harold Buttleman: Daredevil Stuntman",
    "popularity": 0.6,
    "poster_path": "/ukkfw17vvVE9pRjt5KHxxGq2Tj3.jpg",
    "original_language": "en",
    "original_title": "Harold Buttleman: Daredevil Stuntman",
    "genre_ids": [],
    "backdrop_path": null,
    "adult": false,
    "overview": "Harold Buttleman, small town tuxedo salesman, thinks he's the next great daredevil stuntman. He's not.",
    "release_date": "2003-05-08"
    }
    ]
    }